%YAML 1.1
%TAG !u! tag:unity3d.com,2011:
--- !u!114 &11400000
MonoBehaviour:
  m_ObjectHideFlags: 0
  m_CorrespondingSourceObject: {fileID: 0}
  m_PrefabInstance: {fileID: 0}
  m_PrefabAsset: {fileID: 0}
  m_GameObject: {fileID: 0}
  m_Enabled: 1
  m_EditorHideFlags: 0
  m_Script: {fileID: 11500000, guid: 95e66c6366d904e98bc83428217d4fd7, type: 3}
  m_Name: CapsuleRotation
  m_EditorClassIdentifier: 
  _data:
    _json: '{"graph":{"variables":{"Kind":"Flow","collection":{"$content":[],"$version":"A"},"$version":"A"},"controlInputDefinitions":[],"controlOutputDefinitions":[],"valueInputDefinitions":[],"valueOutputDefinitions":[],"title":null,"summary":null,"pan":{"x":231.8925,"y":-237.4827},"zoom":1.0,"elements":[{"coroutine":false,"defaultValues":{},"position":{"x":-380.0,"y":-261.0},"guid":"ad08331e-4c3c-477a-ae8a-04347e2390f2","$version":"A","$type":"Unity.VisualScripting.Update","$id":"9"},{"chainable":false,"member":{"name":"ClampMagnitude","parameterTypes":["UnityEngine.Vector3","System.Single"],"targetType":"UnityEngine.Vector3","targetTypeName":"UnityEngine.Vector3","$version":"A"},"defaultValues":{"%vector":{"x":0.0,"y":0.0,"z":0.0,"$type":"UnityEngine.Vector3"},"%maxLength":{"$content":1.0,"$type":"System.Single"}},"position":{"x":-208.0,"y":-262.0},"guid":"73dcb835-26f5-401c-96e8-8bf219662f80","$version":"A","$type":"Unity.VisualScripting.InvokeMember","$id":"11"},{"chainable":false,"member":{"name":"Rotate","parameterTypes":["UnityEngine.Vector3"],"targetType":"UnityEngine.Transform","targetTypeName":"UnityEngine.Transform","$version":"A"},"defaultValues":{"target":null,"%eulers":{"x":0.0,"y":0.0,"z":0.0,"$type":"UnityEngine.Vector3"}},"position":{"x":16.0,"y":-277.0},"guid":"d83dff33-13de-4fdd-a48c-36e1d534e7ce","$version":"A","$type":"Unity.VisualScripting.InvokeMember","$id":"14"},{"defaultValues":{},"position":{"x":-100.0,"y":266.0},"guid":"fce9e97d-5a62-45f1-91f9-4491a8c20b30","$version":"A","$type":"Unity.VisualScripting.GenericMultiply","$id":"17"},{"defaultValues":{},"position":{"x":-62.0,"y":115.0},"guid":"cab68b06-d619-4bf2-8fa4-12ee2329cd7c","$version":"A","$type":"Unity.VisualScripting.GenericMultiply","$id":"19"},{"member":{"name":"deltaTime","parameterTypes":null,"targetType":"UnityEngine.Time","targetTypeName":"UnityEngine.Time","$version":"A"},"defaultValues":{},"position":{"x":-350.0,"y":360.0},"guid":"7ce8ce58-1256-4a6d-8775-aa0ec892a3a6","$version":"A","$type":"Unity.VisualScripting.GetMember","$id":"21"},{"specifyFallback":false,"kind":"Object","defaultValues":{"name":{"$content":"RotationSpeed","$type":"System.String"},"object":null},"position":{"x":-477.0,"y":208.0},"guid":"61b8be99-791f-432d-aaad-1474b4a93129","$version":"A","$type":"Unity.VisualScripting.GetVariable","$id":"24"},{"specifyFallback":false,"kind":"Object","defaultValues":{"name":{"$content":"RotationAxis","$type":"System.String"},"object":null},"position":{"x":-407.0,"y":-36.0},"guid":"6ddb1af3-2946-4294-b011-a8bc0c64973b","$version":"A","$type":"Unity.VisualScripting.GetVariable","$id":"26"},{"sourceUnit":{"$ref":"9"},"sourceKey":"trigger","destinationUnit":{"$ref":"11"},"destinationKey":"enter","guid":"5faaf934-0636-4b57-93c3-1f928761afb8","$type":"Unity.VisualScripting.ControlConnection"},{"sourceUnit":{"$ref":"11"},"sourceKey":"exit","destinationUnit":{"$ref":"14"},"destinationKey":"enter","guid":"e46361f4-4711-4ba3-8110-0b35a6273ea3","$type":"Unity.VisualScripting.ControlConnection"},{"sourceUnit":{"$ref":"11"},"sourceKey":"result","destinationUnit":{"$ref":"19"},"destinationKey":"a","guid":"b82f78af-bb4f-47e6-aee8-516575a19455","$type":"Unity.VisualScripting.ValueConnection"},{"sourceUnit":{"$ref":"17"},"sourceKey":"product","destinationUnit":{"$ref":"19"},"destinationKey":"b","guid":"33222705-7237-4c0b-aa54-a233acfc0c52","$type":"Unity.VisualScripting.ValueConnection"},{"sourceUnit":{"$ref":"21"},"sourceKey":"value","destinationUnit":{"$ref":"17"},"destinationKey":"b","guid":"57fd7c46-9309-4ff5-b7fa-400faf492ed2","$type":"Unity.VisualScripting.ValueConnection"},{"sourceUnit":{"$ref":"19"},"sourceKey":"product","destinationUnit":{"$ref":"14"},"destinationKey":"%eulers","guid":"a061405d-fda3-46f6-a9b5-0661fc1a73cc","$type":"Unity.VisualScripting.ValueConnection"},{"sourceUnit":{"$ref":"24"},"sourceKey":"value","destinationUnit":{"$ref":"17"},"destinationKey":"a","guid":"04194e59-4016-4a91-891a-46197da7f235","$type":"Unity.VisualScripting.ValueConnection"},{"sourceUnit":{"$ref":"26"},"sourceKey":"value","destinationUnit":{"$ref":"11"},"destinationKey":"%vector","guid":"75a567b9-8c42-4bc7-903b-2dc4c7cba067","$type":"Unity.VisualScripting.ValueConnection"}],"$version":"A"}}'
    _objectReferences: []
